sample	long	short1	short2
SA-2-lr-GS	/cephfs/abteilung4/Datentransfer/MinIon_Network/20211011_1617_MC-110407_0_FAQ72622_27371ed7/raw/barcode01.fastq.gz	/cephfs/abteilung4/Projects_NGS/Akkreditierung/210521_NB502070_0112_AHMY2KAFX2/Analysis_v1_3_8beta/trimmed/SA-2-GS_R1.fastq.gz	/cephfs/abteilung4/Projects_NGS/Akkreditierung/210521_NB502070_0112_AHMY2KAFX2/Analysis_v1_3_8beta/trimmed/SA-2-GS_R2.fastq.gz
CA-2-lr-GS	/cephfs/abteilung4/Datentransfer/MinIon_Network/20211011_1617_MC-110407_0_FAQ72622_27371ed7/raw/barcode03.fastq.gz	/cephfs/abteilung4/Projects_NGS/Akkreditierung/210521_NB502070_0112_AHMY2KAFX2/Analysis_v1_3_8beta/trimmed/CA-2-GS_R1.fastq.gz	/cephfs/abteilung4/Projects_NGS/Akkreditierung/210521_NB502070_0112_AHMY2KAFX2/Analysis_v1_3_8beta/trimmed/CA-2-GS_R2.fastq.gz
LI-3-lr-GS	/cephfs/abteilung4/Datentransfer/MinIon_Network/20211011_1617_MC-110407_0_FAQ72622_27371ed7/raw/barcode07.fastq.gz	/cephfs/abteilung4/Projects_NGS/Akkreditierung/210521_NB502070_0112_AHMY2KAFX2/Analysis_v1_3_8beta/trimmed/LI-3-GS_R1.fastq.gz	/cephfs/abteilung4/Projects_NGS/Akkreditierung/210521_NB502070_0112_AHMY2KAFX2/Analysis_v1_3_8beta/trimmed/LI-3-GS_R2.fastq.gz
pEC-1-GS2	/cephfs/abteilung4/Datentransfer/MinIon_Network/20211018_1206_MC-110407_0_FAQ75640_583859da/raw/barcode01.fastq.gz	/cephfs/abteilung4/NGS/Data/iSeq/20211022_FS10000892_17_BPG61617-0519/Analysis/trimmed/pEC-1_R1.fastq.gz	/cephfs/abteilung4/NGS/Data/iSeq/20211022_FS10000892_17_BPG61617-0519/Analysis/trimmed/pEC-1_R2.fastq.gz
