sample	all_pass	count_pass	count_warning	count_na	warning_metrics	n50_raw	median_qual_raw	n50_filtered	median_qual_filtered	long_read_coverage
CA-2-lr-GS	PASS	5	0	0	NA	14353	11.4	14419	11.4	352.674289224568
LI-3-lr-GS	WARNING	3	2	0	n50_raw;n50_filtered	7964	11.7	8168	11.8	210.183085092031
SA-2-lr-GS	PASS	5	0	0	NA	14750	11.4	14891	11.4	408.703737259441
pEC-1-GS2	PASS	5	0	0	NA	10214	9.8	10379	9.8	294.667762370656
